…
Differencing can help stabilize the mean of the time series.

Differencing is performed by subtracting the previous observation from
the current observation:

***X<sub>t</sub>*−*X<sub>t−1</sub>***.

``` r
#Differencing in R
Dami_diff <-Dami %>% 
mutate(first_diff=c(NA, diff(start, 1, 1))) %>%
print()
```

    ## # A tibble: 121 × 6
    ##    subName problemName start obNew Event     first_diff
    ##    <chr>   <chr>       <dbl> <dbl> <chr>          <dbl>
    ##  1 Dami    Function     2300     1 attention         NA
    ##  2 Dami    Function     6700     6 attention       4400
    ##  3 Dami    Function     9550     6 attention       2850
    ##  4 Dami    Function    12250     6 attention       2700
    ##  5 Dami    Function    14650     6 attention       2400
    ##  6 Dami    Function    19250     6 attention       4600
    ##  7 Dami    Function    21350     6 attention       2100
    ##  8 Dami    Function    23300     6 attention       1950
    ##  9 Dami    Function    29800     6 attention       6500
    ## 10 Dami    Function    30550     2 attention        750
    ## # ℹ 111 more rows
…
